^C:\USERS\МАКСИМ\DESKTOP\PZ\PZ_18\PZ_18.CPP
C:\USERS\Максим\DESKTOP\PZ\PZ_18\PZ_18\X64\DEBUG\VC143.PDB
C:\USERS\Максим\DESKTOP\PZ\PZ_18\PZ_18\X64\DEBUG\VC143.IDB
C:\USERS\Максим\DESKTOP\PZ\PZ_18\PZ_18\X64\DEBUG\PZ_18.OBJ
